﻿Bellotti;Francesco;Associato;ING-INF/01;55890888700; https://rubrica.unige.it/personale/UkNHWVph
Berta;Riccardo;Associato;ING-INF/01;6701751695;https://rubrica.unige.it/personale/UkNHXVxv
Bisio;Igor;Associato;ING-INF/03;8546192900;https://rubrica.unige.it/personale/UkNHXFlq
Bolla;Raffaele;Ordinario;ING-INF/03;7006403406;https://rubrica.unige.it/personale/VUZDU1pp
Caviglia;Daniele;Ordinario;ING-INF/01;7004012654;https://rubrica.unige.it/personale/VUdBWVtq
Curatelli;Francesco;Associato;ING-INF/01;57154509300;https://rubrica.unige.it/personale/VUZEUlls
Davoli;Franco;Ordinario;ING-INF/03;12239775200;https://rubrica.unige.it/personale/VUBOWFJq
De Gloria;Alessandro;Ordinario;ING-INF/01;7004620974;https://rubrica.unige.it/personale/VUdBWVpr
Dellepiane;Silvana;Associato;ING-INF/03;7004291247;https://rubrica.unige.it/personale/VUZEU1xr
Di Zitti;Ermanno;Associato;ING-INF/01;6603663623;https://rubrica.unige.it/personale/VUZEWF1q
Donzellini;Giuliano;Ricercatore;ING-INF/01;6603298141;https://rubrica.unige.it/personale/VUdBWlNr
Fedeli;Alessandro;Ricercatore;ING-INF/02;55512997500;https://rubrica.unige.it/personale/VkFAWVtr
Gastaldo;Paolo;Ricercatore;ING-INF/01;35612596100;https://rubrica.unige.it/personale/UkNHWFJv
Gragnani;Gian Luigi;Associato;ING-INF/02;6701681576;https://rubrica.unige.it/personale/VUZEWl1g
Grattarola;Aldo;Associato;ING-INF/03;6603286614;https://rubrica.unige.it/personale/VUZEWF1t
Lavagetto;Fabio;Ordinario;ING-INF/03;7004136693;https://rubrica.unige.it/personale/VUZDX1tu
Marcenaro;Lucio;Ricercatore;ING-INF/03;6603377664;https://rubrica.unige.it/personale/VUZBU1hs
Marchese;Mario;Ordinario;ING-INF/03;7004398165;https://rubrica.unige.it/personale/VUZBX15o
Moser;Gabriele;Associato;ING-INF/03;7101795745;https://rubrica.unige.it/personale/UkNHXlxu
Oliveri;Alberto;Ricercatore;ING-IND/31;57200399832;https://rubrica.unige.it/personale/V0tFXFtq
Parodi;Mauro;Ordinario;ING-IND/31;35508934400;https://rubrica.unige.it/personale/VUFFUlNr
Pastorino;Matteo;Ordinario;ING-INF/02;7004880389;https://rubrica.unige.it/personale/VUZEUlhg
Raffetto;Mirco;Ordinario;ING-INF/02;6701772951;https://rubrica.unige.it/personale/VUZBWlJp
Randazzo;Andrea;Associato;ING-INF/02;7006280562;https://rubrica.unige.it/personale/UkNHXFJh
Regazzoni;Carlo;Ordinario;ING-INF/03;35513672400;https://rubrica.unige.it/personale/VUZDXl9v
Sciarrone;Andrea;Ricercatore;ING-INF/03;36180166900;https://rubrica.unige.it/personale/UkNGWV5s
Seminara;Lucia;Ricercatore;ING-INF/01;19338029900;https://rubrica.unige.it/personale/UkNGWVNu
Serpico;Sebastiano;Ordinario;ING-INF/03;7005306316;https://rubrica.unige.it/personale/VUZEX1hq
Storace;Marco;Ordinario;ING-IND/31;7004134087;https://rubrica.unige.it/personale/VUZCWFxu
Trucco;Andrea;Ordinario;ING-INF/03;7007035725;https://rubrica.unige.it/personale/VUZCWF9r
Valle;Maurizio;Associato;ING-INF/01;57197744325;https://rubrica.unige.it/personale/VUZDW15s
Zappatore;Sandro;Associato;ING-INF/03;6602811400;https://rubrica.unige.it/personale/VUZEU1xo
Zunino;Rodolfo;Associato;ING-INF/01;7006338311;https://rubrica.unige.it/personale/VUZDXlxs
