﻿Altosole;Marco;Associato;ING-IND/02;13006187800;https://rubrica.unige.it/personale/UkNHXllr
Boote;Dario;Associato;ING-IND/02;56214807300;https://rubrica.unige.it/personale/VUdCU15g
Ferrando;Marco;Associato;ING-IND/01;7006903025;https://rubrica.unige.it/personale/VUdCU1lh
Figari;Massimo;Associato;ING-IND/02;6507282370;https://rubrica.unige.it/personale/VUZDX1lt
Gaggero;Stefano;Ricercatore;ING-IND/01;6503976905;https://rubrica.unige.it/personale/UkNGWVNp
Gaggero;Tomaso;Ricercatore;ING-IND/02;55212255700;https://rubrica.unige.it/personale/V0RCUl5g
Gaiotti;Marco;Associato;ING-IND/02;55200599100;https://rubrica.unige.it/personale/UkNGXV5t  
Gualeni;Paola;Associato;ING-IND/01;15057843300;https://rubrica.unige.it/personale/VUZDXFpt
Martelli;Michele;Ricercatore;ING-IND/02;55521641400;https://rubrica.unige.it/personale/V0RDXFxp
Ravina;Enrico;Ordinario;ING-IND/13;55621181100;https://rubrica.unige.it/personale/VUFOW1Nh
Rizzo;Cesare Mario;Associato;ING-IND/02;15072981100;https://rubrica.unige.it/personale/VUZBWF1h
Rizzuto;Enrico;Ordinario;ING-IND/02;6602173744;https://rubrica.unige.it/personale/VUZEWFNp
Tani;Giorgio;Ricercatore;ING-IND/01;55355605100;https://rubrica.unige.it/personale/V0tFX11u
Villa;Diego;Ricercatore;ING-IND/01;56250522200;https://rubrica.unige.it/personale/UkNHUlxg
Viviani;Michele;Associato;ING-IND/01;55493384300;https://rubrica.unige.it/personale/VUZBXlhg     
Podenzana Bonvino;Carlo;Ordinario;ING-IND/01;6507106439;//https://rubrica.unige.it/personale/VUFEUlJr
Galli;Anna Maria;Ordinario;ING-IND/01;56735592200;https://rubrica.unige.it/personale/VUBHUlJh
Bruzzone;Dario;Ordinario;ING-IND/01;6602292559;https://rubrica.unige.it/personale/VUNOW1xu